…
    ## Loading required package: RColorBrewer

    ## Warning: package 'RColorBrewer' was built under R version 4.0.5

The first thing we’ll need to do is filter out stop words, including
custom ones. Stop words are words that are commonly used that we are NOT
interested in analyzing. The tidytext package comes with a set of
preloaded stop words such as `c("the", "and", "or")` and so on. Here’s
what that built in list looks like:

``` r
stop_words
```

    ## # A tibble: 1,149 × 2
    ##    word        lexicon
    ##    <chr>       <chr>  
    ##  1 a           SMART  
    ##  2 a's         SMART  
    ##  3 able        SMART  
    ##  4 about       SMART  
    ##  5 above       SMART  
    ##  6 according   SMART  
    ##  7 accordingly SMART  
    ##  8 across      SMART  
    ##  9 actually    SMART  
    ## 10 after       SMART  
    ## # … with 1,139 more rows
…
``` r
# Suppose Hillary Clinton is elected president in 2016. In your view, what would be the best or most positive thing about a Hillary Clinton presidency? 
# Single word cloud
d4 <- d3 %>% 
   filter(is.na(ideo_x) == F) %>%
   mutate(clinton_oe = str_c(P862_1_T, ";", P862_2_T, ";", P862_3_T)) %>% 
   mutate(clinton_oe = str_replace_all(clinton_oe %>% tolower, "barrack", "barack"),
          clinton_oe = str_replace_all(clinton_oe %>% tolower, "women", "woman"),
          clinton_oe = str_replace_all(clinton_oe %>% tolower, "women's", "woman"),
          clinton_oe = str_replace_all(clinton_oe %>% tolower, "woman's", "woman"))

d4
```

    ## # A tibble: 915 × 12
    ##    ID     WTFCTR LANGUAGE  P862_…¹ P862_…² P862_…³ P863_…⁴ P863_…⁵ P863_…⁶   D16
    ##    <chr>   <dbl> <chr+lbl> <chr>   <chr>   <chr>   <chr>   <chr>   <chr>   <dbl>
    ##  1 017558  0.32  1 [Engli… "I WON… ""      ""      "THE D… ""      ""          3
    ##  2 017560  1.41  1 [Engli… "THAT … ""      ""      ""      ""      ""          4
    ##  3 017562  1.23  1 [Engli… ""      ""      ""      ""      ""      ""          3
    ##  4 017565  0.668 1 [Engli… ""      ""      ""      ""      ""      ""          2
    ##  5 017539  0.23  1 [Engli… "did a… "do al… ""      "huban… ""      ""          2
    ##  6 017567  0.23  1 [Engli… "UMM I… "I THI… ""      "I GUE… ""      ""          3
    ##  7 017544  0.728 1 [Engli… "DONT … ""      ""      ""      ""      ""          2
    ##  8 017575  0.263 1 [Engli… "A CHA… ""      ""      "HER P… ""      ""          2
    ##  9 017554  0.348 1 [Engli… "I LIK… "SHE'S… "MAYBE… "SHE N… ""      ""          1
    ## 10 017579  0.267 1 [Engli… "SHE H… "AND T… ""      "THAT … ""      ""          3
    ## # … with 905 more rows, 2 more variables: ideo_x <chr>, clinton_oe <chr>, and
    ## #   abbreviated variable names ¹​P862_1_T, ²​P862_2_T, ³​P862_3_T, ⁴​P863_1_T,
    ## #   ⁵​P863_2_T, ⁶​P863_3_T
…
We can view the results of this calculation by activating the nodes and
then using `as_tibble`:

``` r
swnet <- swnet %>% 
   activate(nodes) %>% 
   mutate(community = as.character(group_louvain()))

# review it
swnet %>% 
   activate(nodes) %>% 
   as_tibble()
```

    ## # A tibble: 22 × 4
    ##    name           id good  community
    ##    <chr>       <dbl> <lgl> <chr>    
    ##  1 R2-D2           0 TRUE  1        
    ##  2 CHEWBACCA       1 TRUE  1        
    ##  3 C-3PO           2 TRUE  4        
    ##  4 LUKE            3 TRUE  2        
    ##  5 DARTH VADER     4 FALSE 3        
    ##  6 CAMIE           5 TRUE  2        
    ##  7 BIGGS           6 TRUE  2        
    ##  8 LEIA            7 TRUE  3        
    ##  9 BERU            8 TRUE  4        
    ## 10 OWEN            9 TRUE  4        
    ## # … with 12 more rows
…
    ## Warning in betweenness(graph = graph, v = V(graph), directed = directed, :
    ## 'nobigint' is deprecated since igraph 1.3 and will be removed in igraph 1.4

``` r
# display it
swnet %>% 
   activate(nodes) %>% 
   arrange(desc(centrality)) %>% 
   as_tibble()
```

    ## # A tibble: 22 × 5
    ##    name           id good  community centrality
    ##    <chr>       <dbl> <lgl> <chr>          <dbl>
    ##  1 LUKE            3 TRUE  2              62.4 
    ##  2 LEIA            7 TRUE  3              45.6 
    ##  3 HAN            13 TRUE  1              37   
    ##  4 C-3PO           2 TRUE  4              12.1 
    ##  5 CHEWBACCA       1 TRUE  1               7.45
    ##  6 RED LEADER     19 TRUE  2               6.75
    ##  7 BIGGS           6 TRUE  2               6.75
    ##  8 OBI-WAN        10 TRUE  1               3.12
    ##  9 R2-D2           0 TRUE  1               2.5 
    ## 10 DARTH VADER     4 FALSE 3               2.5 
    ## # … with 12 more rows
…
