…
``` r
ranked_by_year <- gapminder %>% 
   select(country, pop, year, continent) %>% 
   group_by(year) %>% 
   arrange(year, -pop) %>% 
   mutate(rank = min_rank(-pop)) %>% 
   filter(rank <= 10)

ranked_by_year
```

    ## # A tibble: 120 × 5
    ## # Groups:   year [12]
    ##    country              pop  year continent  rank
    ##    <fct>              <int> <int> <fct>     <int>
    ##  1 China          556263527  1952 Asia          1
    ##  2 India          372000000  1952 Asia          2
    ##  3 United States  157553000  1952 Americas      3
    ##  4 Japan           86459025  1952 Asia          4
    ##  5 Indonesia       82052000  1952 Asia          5
    ##  6 Germany         69145952  1952 Europe        6
    ##  7 Brazil          56602560  1952 Americas      7
    ##  8 United Kingdom  50430000  1952 Europe        8
    ##  9 Italy           47666000  1952 Europe        9
    ## 10 Bangladesh      46886859  1952 Asia         10
    ## # … with 110 more rows
…
    ## Warning in mask$eval_all_mutate(quo): NAs introduced by coercion

``` r
gdp_formatted <- gdp_tidy %>% 
   group_by(year) %>% 
   mutate(rank = rank(-value),
          value_rel = value/value[rank==1],
          value_label = paste0(" ", round(value/1e9))) %>%
   filter(rank <= 10)

gdp_formatted
```

    ## # A tibble: 110 × 7
    ## # Groups:   year [11]
    ##    country_name country_code  year   value  rank value_rel value_label
    ##    <chr>        <chr>        <dbl>   <dbl> <dbl>     <dbl> <chr>      
    ##  1 Brazil       BRA           1990 4.62e11    10    0.0773 " 462"     
    ##  2 Brazil       BRA           2000 6.55e11    10    0.0637 " 655"     
    ##  3 Brazil       BRA           2009 1.67e12     8    0.116  " 1667"    
    ##  4 Brazil       BRA           2010 2.21e12     7    0.148  " 2209"    
    ##  5 Brazil       BRA           2011 2.62e12     7    0.169  " 2616"    
    ##  6 Brazil       BRA           2012 2.47e12     7    0.153  " 2465"    
    ##  7 Brazil       BRA           2013 2.47e12     7    0.148  " 2473"    
    ##  8 Brazil       BRA           2014 2.46e12     7    0.141  " 2456"    
    ##  9 Brazil       BRA           2015 1.80e12     9    0.0995 " 1802"    
    ## 10 Brazil       BRA           2016 1.79e12     9    0.0963 " 1794"    
    ## # … with 100 more rows
…
